%YAML 1.1
%TAG !u! tag:unity3d.com,2011:
--- !u!114 &11400000
MonoBehaviour:
  m_ObjectHideFlags: 0
  m_CorrespondingSourceObject: {fileID: 0}
  m_PrefabInstance: {fileID: 0}
  m_PrefabAsset: {fileID: 0}
  m_GameObject: {fileID: 0}
  m_Enabled: 1
  m_EditorHideFlags: 0
  m_Script: {fileID: 11500000, guid: b71cb900fa9dec5488df2deb180db58f, type: 3}
  m_Name: New MixedRealityInputSystemProfile
  m_EditorClassIdentifier: 
  isCustomProfile: 1
  dataProviderConfigurations:
  - componentType:
      reference: Microsoft.MixedReality.Toolkit.WindowsMixedReality.Input.WindowsMixedRealityDeviceManager,
        Microsoft.MixedReality.Toolkit.Providers.WindowsMixedReality
    componentName: Windows Mixed Reality Device Manager
    priority: 0
    runtimePlatform: 8
    deviceManagerProfile: {fileID: 0}
  - componentType:
      reference: Microsoft.MixedReality.Toolkit.OpenVR.Input.OpenVRDeviceManager,
        Microsoft.MixedReality.Toolkit.Providers.OpenVR
    componentName: OpenVR Device Manager
    priority: 0
    runtimePlatform: 7
    deviceManagerProfile: {fileID: 0}
  - componentType:
      reference: Microsoft.MixedReality.Toolkit.Input.UnityInput.UnityJoystickManager,
        Microsoft.MixedReality.Toolkit
    componentName: Unity Joystick Manager
    priority: 0
    runtimePlatform: -1
    deviceManagerProfile: {fileID: 0}
  - componentType:
      reference: Microsoft.MixedReality.Toolkit.Input.UnityInput.UnityTouchDeviceManager,
        Microsoft.MixedReality.Toolkit
    componentName: Unity Touch Device Manager
    priority: 0
    runtimePlatform: -1
    deviceManagerProfile: {fileID: 0}
  - componentType:
      reference: Microsoft.MixedReality.Toolkit.Windows.Input.WindowsSpeechInputProvider,
        Microsoft.MixedReality.Toolkit.Providers.WindowsVoiceInput
    componentName: Windows Speech Input
    priority: 0
    runtimePlatform: 25
    deviceManagerProfile: {fileID: 0}
  - componentType:
      reference: Microsoft.MixedReality.Toolkit.Windows.Input.WindowsDictationInputProvider,
        Microsoft.MixedReality.Toolkit.Providers.WindowsVoiceInput
    componentName: Windows Dictation Input
    priority: 0
    runtimePlatform: 25
    deviceManagerProfile: {fileID: 0}
  - componentType:
      reference: Microsoft.MixedReality.Toolkit.Input.HandJointService, Microsoft.MixedReality.Toolkit
    componentName: Hand Joint Service
    priority: 0
    runtimePlatform: -1
    deviceManagerProfile: {fileID: 0}
  - componentType:
      reference: Microsoft.MixedReality.Toolkit.Input.InputSimulationService, Microsoft.MixedReality.Toolkit.Services.InputSimulation
    componentName: Input Simulation Service
    priority: 0
    runtimePlatform: 208
    deviceManagerProfile: {fileID: 11400000, guid: 41478039094d47641bf4e09c20e61a5a, type: 2}
  - componentType:
      reference: Microsoft.MixedReality.Toolkit.WindowsMixedReality.Input.WindowsMixedRealityEyeGazeDataProvider,
        Microsoft.MixedReality.Toolkit.Providers.WindowsMixedReality
    componentName: Windows Mixed Reality Eye Gaze Provider
    priority: 0
    runtimePlatform: 8
    deviceManagerProfile: {fileID: 11400000, guid: 2d87dd11b18f700449c9dab320d19b99, type: 2}
  - componentType:
      reference: Microsoft.MixedReality.Toolkit.Input.InputRecordingService, Microsoft.MixedReality.Toolkit.Services.InputAnimation
    componentName: Input Recording Service
    priority: 0
    runtimePlatform: -1
    deviceManagerProfile: {fileID: 11400000, guid: d0f5a7f6d1f9f0b4cb6eb35c797a0f04, type: 2}
  - componentType:
      reference: Microsoft.MixedReality.Toolkit.Input.InputPlaybackService, Microsoft.MixedReality.Toolkit.Services.InputSimulation
    componentName: Input Playback Service
    priority: 0
    runtimePlatform: 208
    deviceManagerProfile: {fileID: 0}
  - componentType:
      reference: Microsoft.MixedReality.Toolkit.XRSDK.WindowsMixedReality.WindowsMixedRealityDeviceManager,
        Microsoft.MixedReality.Toolkit.Providers.XRSDK.WindowsMixedReality
    componentName: XR SDK Windows Mixed Reality Device Manager
    priority: 0
    runtimePlatform: 9
    deviceManagerProfile: {fileID: 0}
  - componentType:
      reference: Microsoft.MixedReality.Toolkit.XRSDK.WindowsMixedReality.WindowsMixedRealityEyeGazeDataProvider,
        Microsoft.MixedReality.Toolkit.Providers.XRSDK.WindowsMixedReality
    componentName: XRSDK Windows Mixed Reality Eye Gaze Provider
    priority: 0
    runtimePlatform: 8
    deviceManagerProfile: {fileID: 11400000, guid: 2d87dd11b18f700449c9dab320d19b99, type: 2}
  - componentType:
      reference: Microsoft.MixedReality.Toolkit.XRSDK.OpenXR.OpenXRDeviceManager,
        Microsoft.MixedReality.Toolkit.Providers.OpenXR
    componentName: OpenXR XRSDK Device Manager
    priority: 0
    runtimePlatform: -1
    deviceManagerProfile: {fileID: 0}
  - componentType:
      reference: Microsoft.MixedReality.Toolkit.XRSDK.OpenXR.OpenXREyeGazeDataProvider,
        Microsoft.MixedReality.Toolkit.Providers.OpenXR
    componentName: OpenXR XRSDK Eye Gaze Provider
    priority: 0
    runtimePlatform: -1
    deviceManagerProfile: {fileID: 11400000, guid: 2d87dd11b18f700449c9dab320d19b99, type: 2}
  - componentType:
      reference: Microsoft.MixedReality.Toolkit.XRSDK.Oculus.Input.OculusXRSDKDeviceManager,
        Microsoft.MixedReality.Toolkit.Providers.XRSDK.Oculus
    componentName: XR SDK Oculus Device Manager
    priority: 0
    runtimePlatform: 33
    deviceManagerProfile: {fileID: 11400000, guid: 8f48cb9c26fb518499c65c9f9e8bb4ed, type: 2}
  focusProviderType:
    reference: Microsoft.MixedReality.Toolkit.Input.FocusProvider, Microsoft.MixedReality.Toolkit.Services.InputSystem
  raycastProviderType:
    reference: Microsoft.MixedReality.Toolkit.Input.DefaultRaycastProvider, Microsoft.MixedReality.Toolkit.Services.InputSystem
  focusQueryBufferSize: 128
  shouldUseGraphicsRaycast: 1
  focusIndividualCompoundCollider: 0
  inputActionsProfile: {fileID: 11400000, guid: 723eb97b02944311b92861f473eee53e, type: 2}
  inputActionRulesProfile: {fileID: 11400000, guid: 03945385d89102f41855bc8f5116b199, type: 2}
  pointerProfile: {fileID: 11400000, guid: 48aa63a9725047b28d4137fd0834bc31, type: 2}
  gesturesProfile: {fileID: 11400000, guid: bd7829a9b29409045a745b5a18299291, type: 2}
  speechCommandsProfile: {fileID: 11400000, guid: 9476a4e208509f649969d1492b467363, type: 2}
  enableControllerMapping: 1
  controllerMappingProfile: {fileID: 11400000, guid: 39ded1fd0711a0c448413d0e1ec4f7f3, type: 2}
  controllerVisualizationProfile: {fileID: 11400000, guid: ac2477ca3c42e514f86bc810089ba605, type: 2}
  handTrackingProfile: {fileID: 11400000, guid: e445e6fda57508c46935bb141b7673a7, type: 2}
