^E:\UNITY\MEDICAL_XINYI\BUILD\FINAL\BUILD\OBJ\MEDICAL_XINYI\ARM64\RELEASE\APP.OBJ|E:\UNITY\MEDICAL_XINYI\BUILD\FINAL\BUILD\OBJ\MEDICAL_XINYI\ARM64\RELEASE\MAIN.OBJ|E:\UNITY\MEDICAL_XINYI\BUILD\FINAL\BUILD\OBJ\MEDICAL_XINYI\ARM64\RELEASE\PCH.OBJ|E:\UNITY\MEDICAL_XINYI\BUILD\FINAL\BUILD\OBJ\MEDICAL_XINYI\ARM64\RELEASE\UNITYGENERATED.OBJ|E:\UNITY\MEDICAL_XINYI\BUILD\FINAL\MEDICAL_XINYI\RESOURCE.RES
\\?\GLOBALROOT\DEVICE\HARDDISKVOLUME4\WINDOWS\SYSWOW64\KERNELBASE.DLL
\\?\GLOBALROOT\DEVICE\HARDDISKVOLUME4\WINDOWS\SYSWOW64\KERNEL32.DLL
C:\PROGRAM FILES (X86)\WINDOWS KITS\10\LIB\10.0.19041.0\UM\ARM64\WINDOWSAPP.LIB
E:\UNITY\MEDICAL_XINYI\BUILD\FINAL\BUILD\BIN\ARM64\RELEASE\GAMEASSEMBLY.LIB
E:\UNITY\MEDICAL_XINYI\BUILD\FINAL\BUILD\OBJ\MEDICAL_XINYI\ARM64\RELEASE\APP.OBJ
E:\UNITY\MEDICAL_XINYI\BUILD\FINAL\BUILD\OBJ\MEDICAL_XINYI\ARM64\RELEASE\MAIN.OBJ
E:\UNITY\MEDICAL_XINYI\BUILD\FINAL\BUILD\OBJ\MEDICAL_XINYI\ARM64\RELEASE\PCH.OBJ
E:\UNITY\MEDICAL_XINYI\BUILD\FINAL\BUILD\OBJ\MEDICAL_XINYI\ARM64\RELEASE\UNITYGENERATED.OBJ
E:\UNITY\MEDICAL_XINYI\BUILD\FINAL\MEDICAL_XINYI\RESOURCE.RES
\\?\GLOBALROOT\DEVICE\HARDDISKVOLUME4\PROGRAM FILES (X86)\MICROSOFT VISUAL STUDIO\2019\PROFESSIONAL\VC\TOOLS\MSVC\14.29.30133\BIN\HOSTX86\ARM64\MSPDB140.DLL
\\?\GLOBALROOT\DEVICE\HARDDISKVOLUME4\WINDOWS\SYSWOW64\BCRYPT.DLL
\\?\GLOBALROOT\DEVICE\HARDDISKVOLUME4\WINDOWS\SYSWOW64\BCRYPTPRIMITIVES.DLL
C:\PROGRAM FILES (X86)\MICROSOFT VISUAL STUDIO\2019\PROFESSIONAL\VC\TOOLS\MSVC\14.29.30133\BIN\HOSTX86\ARM64\C2.DLL
\\?\GLOBALROOT\DEVICE\HARDDISKVOLUME4\PROGRAM FILES (X86)\MICROSOFT VISUAL STUDIO\2019\PROFESSIONAL\VC\TOOLS\MSVC\14.29.30133\BIN\HOSTX86\ARM64\C2.DLL
\\?\GLOBALROOT\DEVICE\HARDDISKVOLUME4\WINDOWS\SYSWOW64\OLE32.DLL
\\?\GLOBALROOT\DEVICE\HARDDISKVOLUME4\WINDOWS\SYSWOW64\OLEAUT32.DLL
\\?\GLOBALROOT\DEVICE\HARDDISKVOLUME4\PROGRAM FILES (X86)\MICROSOFT VISUAL STUDIO\2019\PROFESSIONAL\VC\TOOLS\MSVC\14.29.30133\BIN\HOSTX86\ARM64\MSOBJ140.DLL
\\?\GLOBALROOT\DEVICE\HARDDISKVOLUME4\WINDOWS\SYSWOW64\UXTHEME.DLL
\\?\GLOBALROOT\DEVICE\HARDDISKVOLUME4\WINDOWS\SYSWOW64\USER32.DLL
\\?\GLOBALROOT\DEVICE\HARDDISKVOLUME4\WINDOWS\SYSWOW64\MSCOREE.DLL
\\?\GLOBALROOT\DEVICE\HARDDISKVOLUME4\WINDOWS\SYSWOW64\ADVAPI32.DLL
\\?\GLOBALROOT\DEVICE\HARDDISKVOLUME4\WINDOWS\MICROSOFT.NET\FRAMEWORK\V4.0.30319\MSCOREEI.DLL
C:\WINDOWS\MICROSOFT.NET\FRAMEWORK\V2.0.50727\MSCORWKS.DLL
C:\WINDOWS\MICROSOFT.NET\FRAMEWORK\V4.0.30319\CLR.DLL
\\?\GLOBALROOT\DEVICE\HARDDISKVOLUME4\WINDOWS\SYSWOW64\SHLWAPI.DLL
C:\PROGRAM FILES (X86)\MICROSOFT VISUAL STUDIO\2019\PROFESSIONAL\VC\TOOLS\MSVC\14.29.30133\BIN\HOSTX86\ARM64\LINK.EXE.CONFIG
\\?\GLOBALROOT\DEVICE\HARDDISKVOLUME4\WINDOWS\SYSWOW64\KERNEL.APPCORE.DLL
\\?\GLOBALROOT\DEVICE\HARDDISKVOLUME4\WINDOWS\SYSWOW64\VERSION.DLL
\\?\GLOBALROOT\DEVICE\HARDDISKVOLUME4\WINDOWS\MICROSOFT.NET\FRAMEWORK\V4.0.30319\CLR.DLL
C:\PROGRAM FILES (X86)\MICROSOFT VISUAL STUDIO\2019\PROFESSIONAL\VC\TOOLS\MSVC\14.29.30133\LIB\ARM64\STORE\VCCORLIB.LIB
C:\PROGRAM FILES (X86)\WINDOWS KITS\10\LIB\10.0.19041.0\UM\ARM64\UUID.LIB
C:\PROGRAM FILES (X86)\MICROSOFT VISUAL STUDIO\2019\PROFESSIONAL\VC\TOOLS\MSVC\14.29.30133\LIB\ARM64\STORE\MSVCRT.LIB
C:\PROGRAM FILES (X86)\MICROSOFT VISUAL STUDIO\2019\PROFESSIONAL\VC\TOOLS\MSVC\14.29.30133\LIB\ARM64\STORE\OLDNAMES.LIB
C:\PROGRAM FILES (X86)\MICROSOFT VISUAL STUDIO\2019\PROFESSIONAL\VC\TOOLS\MSVC\14.29.30133\LIB\ARM64\STORE\VCRUNTIME.LIB
C:\PROGRAM FILES (X86)\WINDOWS KITS\10\LIB\10.0.19041.0\UCRT\ARM64\UCRT.LIB
C:\WINDOWS\SYSTEM32\TZRES.DLL
C:\PROGRAM FILES (X86)\MICROSOFT VISUAL STUDIO\2019\PROFESSIONAL\VC\TOOLS\MSVC\14.29.30133\BIN\HOSTX86\ARM64\1036\LINKUI.DLL
\\?\GLOBALROOT\DEVICE\HARDDISKVOLUME4\WINDOWS\SYSWOW64\RPCRT4.DLL
\\?\GLOBALROOT\DEVICE\HARDDISKVOLUME4\WINDOWS\MICROSOFT.NET\FRAMEWORK\V4.0.30319\ALINK.DLL
C:\PROGRAM FILES (X86)\MICROSOFT VISUAL STUDIO\2019\PROFESSIONAL\VC\TOOLS\MSVC\14.29.30133\LIB\X86\STORE\REFERENCES\PLATFORM.WINMD
C:\PROGRAM FILES (X86)\WINDOWS KITS\10\REFERENCES\10.0.19041.0\WINDOWS.FOUNDATION.FOUNDATIONCONTRACT\4.0.0.0\WINDOWS.FOUNDATION.FOUNDATIONCONTRACT.WINMD
C:\PROGRAM FILES (X86)\WINDOWS KITS\10\REFERENCES\10.0.19041.0\WINDOWS.FOUNDATION.UNIVERSALAPICONTRACT\10.0.0.0\WINDOWS.FOUNDATION.UNIVERSALAPICONTRACT.WINMD
C:\PROGRAM FILES (X86)\WINDOWS KITS\10\REFERENCES\10.0.19041.0\WINDOWS.APPLICATIONMODEL.ACTIVATION.WEBUISEARCHACTIVATEDEVENTSCONTRACT\1.0.0.0\WINDOWS.APPLICATIONMODEL.ACTIVATION.WEBUISEARCHACTIVATEDEVENTSCONTRACT.WINMD
C:\PROGRAM FILES (X86)\WINDOWS KITS\10\REFERENCES\10.0.19041.0\WINDOWS.APPLICATIONMODEL.WALLET.WALLETCONTRACT\1.0.0.0\WINDOWS.APPLICATIONMODEL.WALLET.WALLETCONTRACT.WINMD
C:\PROGRAM FILES (X86)\WINDOWS KITS\10\REFERENCES\10.0.19041.0\WINDOWS.EMBEDDED.DEVICELOCKDOWN.DEVICELOCKDOWNCONTRACT\1.0.0.0\WINDOWS.EMBEDDED.DEVICELOCKDOWN.DEVICELOCKDOWNCONTRACT.WINMD
C:\PROGRAM FILES (X86)\WINDOWS KITS\10\REFERENCES\10.0.19041.0\WINDOWS.GAMING.PREVIEW.GAMESENUMERATIONCONTRACT\2.0.0.0\WINDOWS.GAMING.PREVIEW.GAMESENUMERATIONCONTRACT.WINMD
C:\PROGRAM FILES (X86)\WINDOWS KITS\10\REFERENCES\10.0.19041.0\WINDOWS.NETWORKING.NETWORKOPERATORS.NETWORKOPERATORSFDNCONTRACT\1.0.0.0\WINDOWS.NETWORKING.NETWORKOPERATORS.NETWORKOPERATORSFDNCONTRACT.WINMD
C:\PROGRAM FILES (X86)\WINDOWS KITS\10\REFERENCES\10.0.19041.0\WINDOWS.PHONE.PHONECONTRACT\1.0.0.0\WINDOWS.PHONE.PHONECONTRACT.WINMD
C:\PROGRAM FILES (X86)\WINDOWS KITS\10\REFERENCES\10.0.19041.0\WINDOWS.PHONE.STARTSCREEN.DUALSIMTILECONTRACT\1.0.0.0\WINDOWS.PHONE.STARTSCREEN.DUALSIMTILECONTRACT.WINMD
C:\PROGRAM FILES (X86)\WINDOWS KITS\10\REFERENCES\10.0.19041.0\WINDOWS.SECURITY.ENTERPRISEDATA.ENTERPRISEDATACONTRACT\5.0.0.0\WINDOWS.SECURITY.ENTERPRISEDATA.ENTERPRISEDATACONTRACT.WINMD
C:\PROGRAM FILES (X86)\WINDOWS KITS\10\REFERENCES\10.0.19041.0\WINDOWS.SYSTEM.PROFILE.PROFILERETAILINFOCONTRACT\1.0.0.0\WINDOWS.SYSTEM.PROFILE.PROFILERETAILINFOCONTRACT.WINMD
C:\PROGRAM FILES (X86)\WINDOWS KITS\10\REFERENCES\10.0.19041.0\WINDOWS.SYSTEM.USERPROFILE.USERPROFILECONTRACT\2.0.0.0\WINDOWS.SYSTEM.USERPROFILE.USERPROFILECONTRACT.WINMD
C:\PROGRAM FILES (X86)\WINDOWS KITS\10\REFERENCES\10.0.19041.0\WINDOWS.UI.WEBUI.CORE.WEBUICOMMANDBARCONTRACT\1.0.0.0\WINDOWS.UI.WEBUI.CORE.WEBUICOMMANDBARCONTRACT.WINMD
C:\PROGRAM FILES\UNITY\HUB\EDITOR\2021.3.17F1\EDITOR\DATA\PLAYBACKENGINES\METROSUPPORT\PLAYERS\UAP\IL2CPP\ARM64\RELEASE\UNITYPLAYER.WINMD
C:\PROGRAM FILES (X86)\WINDOWS KITS\10\REFERENCES\10.0.19041.0\WINDOWS.AI.MACHINELEARNING.MACHINELEARNINGCONTRACT\3.0.0.0\WINDOWS.AI.MACHINELEARNING.MACHINELEARNINGCONTRACT.WINMD
C:\PROGRAM FILES (X86)\WINDOWS KITS\10\REFERENCES\10.0.19041.0\WINDOWS.AI.MACHINELEARNING.PREVIEW.MACHINELEARNINGPREVIEWCONTRACT\2.0.0.0\WINDOWS.AI.MACHINELEARNING.PREVIEW.MACHINELEARNINGPREVIEWCONTRACT.WINMD
C:\PROGRAM FILES (X86)\WINDOWS KITS\10\REFERENCES\10.0.19041.0\WINDOWS.APPLICATIONMODEL.CALLS.BACKGROUND.CALLSBACKGROUNDCONTRACT\2.0.0.0\WINDOWS.APPLICATIONMODEL.CALLS.BACKGROUND.CALLSBACKGROUNDCONTRACT.WINMD
C:\PROGRAM FILES (X86)\WINDOWS KITS\10\REFERENCES\10.0.19041.0\WINDOWS.APPLICATIONMODEL.CALLS.CALLSPHONECONTRACT\5.0.0.0\WINDOWS.APPLICATIONMODEL.CALLS.CALLSPHONECONTRACT.WINMD
C:\PROGRAM FILES (X86)\WINDOWS KITS\10\REFERENCES\10.0.19041.0\WINDOWS.APPLICATIONMODEL.CALLS.CALLSVOIPCONTRACT\4.0.0.0\WINDOWS.APPLICATIONMODEL.CALLS.CALLSVOIPCONTRACT.WINMD
C:\PROGRAM FILES (X86)\WINDOWS KITS\10\REFERENCES\10.0.19041.0\WINDOWS.APPLICATIONMODEL.COMMUNICATIONBLOCKING.COMMUNICATIONBLOCKINGCONTRACT\2.0.0.0\WINDOWS.APPLICATIONMODEL.COMMUNICATIONBLOCKING.COMMUNICATIONBLOCKINGCONTRACT.WINMD
C:\PROGRAM FILES (X86)\WINDOWS KITS\10\REFERENCES\10.0.19041.0\WINDOWS.APPLICATIONMODEL.SOCIALINFO.SOCIALINFOCONTRACT\2.0.0.0\WINDOWS.APPLICATIONMODEL.SOCIALINFO.SOCIALINFOCONTRACT.WINMD
C:\PROGRAM FILES (X86)\WINDOWS KITS\10\REFERENCES\10.0.19041.0\WINDOWS.APPLICATIONMODEL.STARTUPTASKCONTRACT\3.0.0.0\WINDOWS.APPLICATIONMODEL.STARTUPTASKCONTRACT.WINMD
C:\PROGRAM FILES (X86)\WINDOWS KITS\10\REFERENCES\10.0.19041.0\WINDOWS.DEVICES.CUSTOM.CUSTOMDEVICECONTRACT\1.0.0.0\WINDOWS.DEVICES.CUSTOM.CUSTOMDEVICECONTRACT.WINMD
C:\PROGRAM FILES (X86)\WINDOWS KITS\10\REFERENCES\10.0.19041.0\WINDOWS.DEVICES.DEVICESLOWLEVELCONTRACT\3.0.0.0\WINDOWS.DEVICES.DEVICESLOWLEVELCONTRACT.WINMD
C:\PROGRAM FILES (X86)\WINDOWS KITS\10\REFERENCES\10.0.19041.0\WINDOWS.DEVICES.PRINTERS.PRINTERSCONTRACT\1.0.0.0\WINDOWS.DEVICES.PRINTERS.PRINTERSCONTRACT.WINMD
C:\PROGRAM FILES (X86)\WINDOWS KITS\10\REFERENCES\10.0.19041.0\WINDOWS.DEVICES.SMARTCARDS.SMARTCARDBACKGROUNDTRIGGERCONTRACT\3.0.0.0\WINDOWS.DEVICES.SMARTCARDS.SMARTCARDBACKGROUNDTRIGGERCONTRACT.WINMD
C:\PROGRAM FILES (X86)\WINDOWS KITS\10\REFERENCES\10.0.19041.0\WINDOWS.DEVICES.SMARTCARDS.SMARTCARDEMULATORCONTRACT\6.0.0.0\WINDOWS.DEVICES.SMARTCARDS.SMARTCARDEMULATORCONTRACT.WINMD
C:\PROGRAM FILES (X86)\WINDOWS KITS\10\REFERENCES\10.0.19041.0\WINDOWS.GAMING.XBOXLIVE.STORAGEAPICONTRACT\1.0.0.0\WINDOWS.GAMING.XBOXLIVE.STORAGEAPICONTRACT.WINMD
C:\PROGRAM FILES (X86)\WINDOWS KITS\10\REFERENCES\10.0.19041.0\WINDOWS.GRAPHICS.PRINTING3D.PRINTING3DCONTRACT\4.0.0.0\WINDOWS.GRAPHICS.PRINTING3D.PRINTING3DCONTRACT.WINMD
C:\PROGRAM FILES (X86)\WINDOWS KITS\10\REFERENCES\10.0.19041.0\WINDOWS.NETWORKING.CONNECTIVITY.WWANCONTRACT\2.0.0.0\WINDOWS.NETWORKING.CONNECTIVITY.WWANCONTRACT.WINMD
C:\PROGRAM FILES (X86)\WINDOWS KITS\10\REFERENCES\10.0.19041.0\WINDOWS.NETWORKING.SOCKETS.CONTROLCHANNELTRIGGERCONTRACT\3.0.0.0\WINDOWS.NETWORKING.SOCKETS.CONTROLCHANNELTRIGGERCONTRACT.WINMD
C:\PROGRAM FILES (X86)\WINDOWS KITS\10\REFERENCES\10.0.19041.0\WINDOWS.SECURITY.ISOLATION.ISOLATEDWINDOWSENVIRONMENTCONTRACT\2.0.0.0\WINDOWS.SECURITY.ISOLATION.ISOLATEDWINDOWSENVIRONMENTCONTRACT.WINMD
C:\PROGRAM FILES (X86)\WINDOWS KITS\10\REFERENCES\10.0.19041.0\WINDOWS.SERVICES.MAPS.GUIDANCECONTRACT\3.0.0.0\WINDOWS.SERVICES.MAPS.GUIDANCECONTRACT.WINMD
C:\PROGRAM FILES (X86)\WINDOWS KITS\10\REFERENCES\10.0.19041.0\WINDOWS.SERVICES.MAPS.LOCALSEARCHCONTRACT\4.0.0.0\WINDOWS.SERVICES.MAPS.LOCALSEARCHCONTRACT.WINMD
C:\PROGRAM FILES (X86)\WINDOWS KITS\10\REFERENCES\10.0.19041.0\WINDOWS.SERVICES.STORE.STORECONTRACT\4.0.0.0\WINDOWS.SERVICES.STORE.STORECONTRACT.WINMD
C:\PROGRAM FILES (X86)\WINDOWS KITS\10\REFERENCES\10.0.19041.0\WINDOWS.SERVICES.TARGETEDCONTENT.TARGETEDCONTENTCONTRACT\1.0.0.0\WINDOWS.SERVICES.TARGETEDCONTENT.TARGETEDCONTENTCONTRACT.WINMD
C:\PROGRAM FILES (X86)\WINDOWS KITS\10\REFERENCES\10.0.19041.0\WINDOWS.STORAGE.PROVIDER.CLOUDFILESCONTRACT\4.0.0.0\WINDOWS.STORAGE.PROVIDER.CLOUDFILESCONTRACT.WINMD
C:\PROGRAM FILES (X86)\WINDOWS KITS\10\REFERENCES\10.0.19041.0\WINDOWS.SYSTEM.PROFILE.PROFILEHARDWARETOKENCONTRACT\1.0.0.0\WINDOWS.SYSTEM.PROFILE.PROFILEHARDWARETOKENCONTRACT.WINMD
C:\PROGRAM FILES (X86)\WINDOWS KITS\10\REFERENCES\10.0.19041.0\WINDOWS.SYSTEM.PROFILE.PROFILESHAREDMODECONTRACT\2.0.0.0\WINDOWS.SYSTEM.PROFILE.PROFILESHAREDMODECONTRACT.WINMD
C:\PROGRAM FILES (X86)\WINDOWS KITS\10\REFERENCES\10.0.19041.0\WINDOWS.SYSTEM.PROFILE.SYSTEMMANUFACTURERS.SYSTEMMANUFACTURERSCONTRACT\3.0.0.0\WINDOWS.SYSTEM.PROFILE.SYSTEMMANUFACTURERS.SYSTEMMANUFACTURERSCONTRACT.WINMD
C:\PROGRAM FILES (X86)\WINDOWS KITS\10\REFERENCES\10.0.19041.0\WINDOWS.SYSTEM.SYSTEMMANAGEMENTCONTRACT\7.0.0.0\WINDOWS.SYSTEM.SYSTEMMANAGEMENTCONTRACT.WINMD
C:\PROGRAM FILES (X86)\WINDOWS KITS\10\REFERENCES\10.0.19041.0\WINDOWS.UI.VIEWMANAGEMENT.VIEWMANAGEMENTVIEWSCALINGCONTRACT\1.0.0.0\WINDOWS.UI.VIEWMANAGEMENT.VIEWMANAGEMENTVIEWSCALINGCONTRACT.WINMD
C:\PROGRAM FILES (X86)\WINDOWS KITS\10\REFERENCES\10.0.19041.0\WINDOWS.UI.XAML.CORE.DIRECT.XAMLDIRECTCONTRACT\2.0.0.0\WINDOWS.UI.XAML.CORE.DIRECT.XAMLDIRECTCONTRACT.WINMD
C:\PROGRAM FILES (X86)\MICROSOFT VISUAL STUDIO\2019\PROFESSIONAL\VC\TOOLS\MSVC\14.29.30133\BIN\HOSTX86\ARM64\CVTRES.EXE
\\?\GLOBALROOT\DEVICE\HARDDISKVOLUME4\WINDOWS\SYSWOW64\NTDLL.DLL
\\?\GLOBALROOT\DEVICE\HARDDISKVOLUME4\WINDOWS\SYSWOW64\RSAENH.DLL
